\relax 
\providecommand\hyper@newdestlabel[2]{}
\catcode `:\active 
\catcode `;\active 
\catcode `!\active 
\catcode `?\active 
\providecommand\HyperFirstAtBeginDocument{\AtBeginDocument}
\HyperFirstAtBeginDocument{\ifx\hyper@anchor\@undefined
\global\let\oldcontentsline\contentsline
\gdef\contentsline#1#2#3#4{\oldcontentsline{#1}{#2}{#3}}
\global\let\oldnewlabel\newlabel
\gdef\newlabel#1#2{\newlabelxx{#1}#2}
\gdef\newlabelxx#1#2#3#4#5#6{\oldnewlabel{#1}{{#2}{#3}}}
\AtEndDocument{\ifx\hyper@anchor\@undefined
\let\contentsline\oldcontentsline
\let\newlabel\oldnewlabel
\fi}
\fi}
\global\let\hyper@last\relax 
\gdef\HyperFirstAtBeginDocument#1{#1}
\providecommand\HyField@AuxAddToFields[1]{}
\providecommand\HyField@AuxAddToCoFields[2]{}
\select@language{french}
\@writefile{toc}{\select@language{french}}
\@writefile{lof}{\select@language{french}}
\@writefile{lot}{\select@language{french}}
\newlabel{sec:entreprise}{{1}{4}{L'entreprise}{section.1}{}}
\@writefile{toc}{\contentsline {section}{\numberline {1}L'entreprise}{4}{section.1}}
\newlabel{sec:loria}{{1.1}{4}{Le Loria}{subsection.1.1}{}}
\@writefile{toc}{\contentsline {subsection}{\numberline {1.1}Le Loria}{4}{subsection.1.1}}
\@writefile{toc}{\contentsline {subsubsection}{\numberline {1.1.1}Un demi-si\IeC {\`e}cle d\IeC {\textquoteright }histoire\IeC {\textellipsis }}{4}{subsubsection.1.1.1}}
\@writefile{toc}{\contentsline {subsubsection}{\numberline {1.1.2}Cr\IeC {\'e}ation du LORIA}{5}{subsubsection.1.1.2}}
\@writefile{toc}{\contentsline {subsubsection}{\numberline {1.1.3}Les diff\IeC {\'e}rents secteur du LORIA}{5}{subsubsection.1.1.3}}
\newlabel{sec:biscuit}{{1.2}{6}{L'équipe biscuit}{subsection.1.2}{}}
\@writefile{toc}{\contentsline {subsection}{\numberline {1.2}L'\IeC {\'e}quipe biscuit}{6}{subsection.1.2}}
\@writefile{toc}{\contentsline {subsubsection}{\numberline {1.2.1}Principe}{6}{subsubsection.1.2.1}}
\@writefile{toc}{\contentsline {subsubsection}{\numberline {1.2.2}Objectif \IeC {\`a} long terme}{6}{subsubsection.1.2.2}}
\@writefile{toc}{\contentsline {subsubsection}{\numberline {1.2.3}M\IeC {\'e}thodologie}{7}{subsubsection.1.2.3}}
\@writefile{toc}{\contentsline {subsubsection}{\numberline {1.2.4}Positionnement scientifique}{7}{subsubsection.1.2.4}}
\citation{Egbert2014}
\citation{Egbert2014}
\citation{Egbert2014}
\newlabel{sec:Stage}{{2}{8}{Stage}{section.2}{}}
\@writefile{toc}{\contentsline {section}{\numberline {2}Stage}{8}{section.2}}
\newlabel{subsec:0}{{2.1}{8}{Présentation du stage}{subsection.2.1}{}}
\@writefile{toc}{\contentsline {subsection}{\numberline {2.1}Pr\IeC {\'e}sentation du stage}{8}{subsection.2.1}}
\newlabel{subsec:1}{{2.2}{8}{Création de la base du modèle}{subsection.2.2}{}}
\@writefile{toc}{\contentsline {subsection}{\numberline {2.2}Cr\IeC {\'e}ation de la base du mod\IeC {\`e}le}{8}{subsection.2.2}}
\@writefile{lof}{\contentsline {figure}{\numberline {1}{\ignorespaces  Diagramme de class}}{9}{figure.1}}
\newlabel{fig:img0}{{1}{9}{Diagramme de class}{figure.1}{}}
\newlabel{eq:1}{{1}{9}{Création de la base du modèle}{equation.2.1}{}}
\newlabel{eq:2}{{2}{9}{Création de la base du modèle}{equation.2.1}{}}
\@writefile{lof}{\contentsline {figure}{\numberline {2}{\ignorespaces  Evolution des Facteurs selon les \IeC {\'e}quations \ref  {eq:1} et \ref  {eq:2}}}{10}{figure.2}}
\newlabel{fig:Facteur}{{2}{10}{Evolution des Facteurs selon les équations \ref {eq:1} et \ref {eq:2}}{figure.2}{}}
\newlabel{eq:3}{{3}{10}{Création de la base du modèle}{equation.2.3}{}}
\newlabel{eq:4}{{4}{10}{Création de la base du modèle}{equation.2.3}{}}
\newlabel{eq:5}{{5}{10}{Création de la base du modèle}{equation.2.3}{}}
\newlabel{eq:5b}{{6}{10}{Création de la base du modèle}{equation.2.3}{}}
\newlabel{eq:5c}{{7}{10}{Création de la base du modèle}{equation.2.3}{}}
\citation{Egbert2014}
\newlabel{subsec:2}{{2.3}{11}{Première experience sur le modèle 2 moteurs pas de capteur}{subsection.2.3}{}}
\@writefile{toc}{\contentsline {subsection}{\numberline {2.3}Premi\IeC {\`e}re experience sur le mod\IeC {\`e}le 2 moteurs pas de capteur}{11}{subsection.2.3}}
\newlabel{eq:vectexp1}{{8}{11}{Première experience sur le modèle 2 moteurs pas de capteur}{equation.2.8}{}}
\@writefile{lof}{\contentsline {figure}{\numberline {3}{\ignorespaces  Espace sensorimoteur d'un agent avec 2 moteurs avec repr\IeC {\'e}sentation du champ vectoriel lors d'un test sur le comportement de l'agent utilisant le mod\IeC {\`e}le IDSM apr\IeC {\`e}s un entrainement d\IeC {\'e}finissant manuellement l'espace sensorimoteur initial de l'agent.(seed du random = 1527067631)}}{12}{figure.3}}
\newlabel{fig:exp1}{{3}{12}{Espace sensorimoteur d'un agent avec 2 moteurs avec représentation du champ vectoriel lors d'un test sur le comportement de l'agent utilisant le modèle IDSM après un entrainement définissant manuellement l'espace sensorimoteur initial de l'agent.(seed du random = 1527067631)}{figure.3}{}}
\newlabel{subsec:3}{{2.4}{12}{Seconde expérience avec 1 capteur et 1 moteur}{subsection.2.4}{}}
\@writefile{toc}{\contentsline {subsection}{\numberline {2.4}Seconde exp\IeC {\'e}rience avec 1 capteur et 1 moteur}{12}{subsection.2.4}}
\newlabel{eq:7}{{9}{12}{Seconde expérience avec 1 capteur et 1 moteur}{equation.2.9}{}}
\newlabel{eq:8}{{10}{12}{Seconde expérience avec 1 capteur et 1 moteur}{equation.2.9}{}}
\@writefile{lof}{\contentsline {figure}{\numberline {4}{\ignorespaces  \textbf  {Deplacement de l'agent selon le temps}. En bleu l'entrainement (premier segment), vert suite en IDSM sans modification de coordonn\IeC {\'e}e ou de vitesse (deuxi\IeC {\`e}me segment), rouge IDSM apr\IeC {\`e}s repositionnement en -2.5 (dernier segment)}}{13}{figure.4}}
\newlabel{fig:exp2}{{4}{13}{\textbf {Deplacement de l'agent selon le temps}. En bleu l'entrainement (premier segment), vert suite en IDSM sans modification de coordonnée ou de vitesse (deuxième segment), rouge IDSM après repositionnement en -2.5 (dernier segment)}{figure.4}{}}
\@writefile{lof}{\contentsline {figure}{\numberline {5}{\ignorespaces Espace sensorimoteur respectivement sans et avec activation imm\IeC {\'e}diate des noeuds (Axe x normalis\IeC {\'e} en 0,5), les vecteurs correspondent \IeC {\`a} l'acc\IeC {\'e}l\IeC {\'e}ration stocker dans chaque noeuds}}{13}{figure.5}}
\newlabel{fig:exp2sensi}{{5}{13}{Espace sensorimoteur respectivement sans et avec activation immédiate des noeuds (Axe x normalisé en 0,5), les vecteurs correspondent à l'accélération stocker dans chaque noeuds}{figure.5}{}}
\newlabel{subsec:4}{{2.5}{14}{Troisième expérience 2 moteurs et 2 capteurs}{subsection.2.5}{}}
\@writefile{toc}{\contentsline {subsection}{\numberline {2.5} Troisi\IeC {\`e}me exp\IeC {\'e}rience 2 moteurs et 2 capteurs}{14}{subsection.2.5}}
\@writefile{lof}{\contentsline {figure}{\numberline {6}{\ignorespaces  Sch\IeC {\'e}ma de l'agent avec 2 moteurs et 2 senseur}}{15}{figure.6}}
\newlabel{fig:imgRobot}{{6}{15}{Schéma de l'agent avec 2 moteurs et 2 senseur}{figure.6}{}}
\newlabel{eq:9}{{11}{15}{Troisième expérience 2 moteurs et 2 capteurs}{equation.2.11}{}}
\newlabel{eq:10}{{12}{15}{Troisième expérience 2 moteurs et 2 capteurs}{equation.2.11}{}}
\newlabel{eq:11}{{13}{15}{Troisième expérience 2 moteurs et 2 capteurs}{equation.2.11}{}}
\newlabel{eq:12}{{14}{15}{Troisième expérience 2 moteurs et 2 capteurs}{equation.2.11}{}}
\newlabel{eq:13}{{15}{15}{Troisième expérience 2 moteurs et 2 capteurs}{equation.2.11}{}}
\newlabel{eq:14}{{16}{15}{Troisième expérience 2 moteurs et 2 capteurs}{equation.2.11}{}}
\newlabel{eq:11b}{{17}{15}{Troisième expérience 2 moteurs et 2 capteurs}{equation.2.17}{}}
\newlabel{eq:15}{{18}{15}{Troisième expérience 2 moteurs et 2 capteurs}{equation.2.18}{}}
\newlabel{eq:16}{{19}{15}{Troisième expérience 2 moteurs et 2 capteurs}{equation.2.19}{}}
\newlabel{eq:17}{{20}{15}{Troisième expérience 2 moteurs et 2 capteurs}{equation.2.19}{}}
\newlabel{eq:18}{{21}{15}{Troisième expérience 2 moteurs et 2 capteurs}{equation.2.21}{}}
\newlabel{eq:19}{{22}{15}{Troisième expérience 2 moteurs et 2 capteurs}{equation.2.21}{}}
\@writefile{lof}{\contentsline {figure}{\numberline {7}{\ignorespaces  a) Intensit\IeC {\'e} lumineuse selon la distance b) Vitesse selon la distance c) Vitesse selon la distance avec modification de la contanste des \IeC {\'e}quations \ref  {eq:15} \IeC {\`a} \ref  {eq:21} par 2.55}}{16}{figure.7}}
\newlabel{fig:img344bis}{{7}{16}{a) Intensité lumineuse selon la distance b) Vitesse selon la distance c) Vitesse selon la distance avec modification de la contanste des équations \ref {eq:15} à \ref {eq:21} par 2.55}{figure.7}{}}
\newlabel{eq:20}{{23}{16}{Troisième expérience 2 moteurs et 2 capteurs}{equation.2.23}{}}
\newlabel{eq:21}{{24}{16}{Troisième expérience 2 moteurs et 2 capteurs}{equation.2.23}{}}
\@writefile{lof}{\contentsline {figure}{\numberline {8}{\ignorespaces  Test Photoaxis}}{17}{figure.8}}
\newlabel{fig:photoaxis}{{8}{17}{Test Photoaxis}{figure.8}{}}
\@writefile{lof}{\contentsline {figure}{\numberline {9}{\ignorespaces  Test SinPhotoaxis}}{17}{figure.9}}
\newlabel{fig:sinphotoaxis}{{9}{17}{Test SinPhotoaxis}{figure.9}{}}
\@writefile{lof}{\contentsline {figure}{\numberline {10}{\ignorespaces  Test PhotoPhobia}}{18}{figure.10}}
\newlabel{fig:photophobia}{{10}{18}{Test PhotoPhobia}{figure.10}{}}
\@writefile{lof}{\contentsline {figure}{\numberline {11}{\ignorespaces R\IeC {\'e}sultat de l'\IeC {\'e}tude}}{18}{figure.11}}
\newlabel{fig:imgD}{{11}{18}{Résultat de l'étude}{figure.11}{}}
\@writefile{lof}{\contentsline {figure}{\numberline {12}{\ignorespaces  Test Photoaxis avec 2,55}}{18}{figure.12}}
\newlabel{fig:photoaxis2.55}{{12}{18}{Test Photoaxis avec 2,55}{figure.12}{}}
\@writefile{lof}{\contentsline {figure}{\numberline {13}{\ignorespaces  Test SinPhotoaxis avec 2,55}}{19}{figure.13}}
\newlabel{fig:sinphotoaxis2.55}{{13}{19}{Test SinPhotoaxis avec 2,55}{figure.13}{}}
\@writefile{lof}{\contentsline {figure}{\numberline {14}{\ignorespaces  Test PhotoPhobia avec 2,55}}{19}{figure.14}}
\newlabel{fig:sinphotoaxis2.55}{{14}{19}{Test PhotoPhobia avec 2,55}{figure.14}{}}
\@writefile{lof}{\contentsline {figure}{\numberline {15}{\ignorespaces  Test Photoaxis avec 2,75}}{19}{figure.15}}
\newlabel{fig:photoaxis2.75}{{15}{19}{Test Photoaxis avec 2,75}{figure.15}{}}
\@writefile{lof}{\contentsline {figure}{\numberline {16}{\ignorespaces  Test SinPhotoaxis avec 2,75}}{19}{figure.16}}
\newlabel{fig:photoaxis2.75}{{16}{19}{Test SinPhotoaxis avec 2,75}{figure.16}{}}
\@writefile{lof}{\contentsline {figure}{\numberline {17}{\ignorespaces  Test PhotoPhobia avec 2,75}}{19}{figure.17}}
\newlabel{fig:photophobia2.75}{{17}{19}{Test PhotoPhobia avec 2,75}{figure.17}{}}
\@writefile{lof}{\contentsline {figure}{\numberline {18}{\ignorespaces  Quelques r\IeC {\'e}sultats obtenue (d'autre r\IeC {\'e}sultat sur le git: https://gitlab.inria.fr/acalba/ModHabitude/tree/master/numpy/Experience4/image) }}{20}{figure.18}}
\newlabel{fig:exp4}{{18}{20}{Quelques résultats obtenue (d'autre résultat sur le git: https://gitlab.inria.fr/acalba/ModHabitude/tree/master/numpy/Experience4/image)}{figure.18}{}}
\newlabel{subsec:6}{{2.6}{20}{Dernière experience sur l'emergence de comportement}{subsection.2.6}{}}
\@writefile{toc}{\contentsline {subsection}{\numberline {2.6}Derni\IeC {\`e}re experience sur l'emergence de comportement}{20}{subsection.2.6}}
\bibstyle{unsrt}
\bibdata{sample.bib}
\bibcite{Egbert2014}{1}
\newlabel{sec:conclusion}{{3}{21}{Conclusion du stage}{section.3}{}}
\@writefile{toc}{\contentsline {section}{\numberline {3}Conclusion du stage}{21}{section.3}}
\newlabel{ref:loria}{{3}{21}{Conclusion du stage}{section*.2}{}}
\newlabel{ref:biscuit}{{3}{21}{Conclusion du stage}{section*.2}{}}
