\begin{thebibliography}{1}

\bibitem{Egbert2014}
Matthew~D. Egbert and Xabier~E. Barandiaran.
\newblock Modeling habits as self-sustaining patterns of sensorimotor behavior.
\newblock {\em Frontiers in Human Neuroscience}, 8:590, 2014.

\end{thebibliography}
