\select@language {french}
\contentsline {section}{\numberline {1}Le Loria}{4}{section.1}
\contentsline {section}{\numberline {2}Stage}{6}{section.2}
\contentsline {section}{\numberline {3}Conclusion du stage}{7}{section.3}
\contentsline {section}{\numberline {4}Introduction}{7}{section.4}
\contentsline {section}{\numberline {5} M\IeC {\'e}thodes}{7}{section.5}
