\relax 
\providecommand\hyper@newdestlabel[2]{}
\catcode `:\active 
\catcode `;\active 
\catcode `!\active 
\catcode `?\active 
\providecommand\HyperFirstAtBeginDocument{\AtBeginDocument}
\HyperFirstAtBeginDocument{\ifx\hyper@anchor\@undefined
\global\let\oldcontentsline\contentsline
\gdef\contentsline#1#2#3#4{\oldcontentsline{#1}{#2}{#3}}
\global\let\oldnewlabel\newlabel
\gdef\newlabel#1#2{\newlabelxx{#1}#2}
\gdef\newlabelxx#1#2#3#4#5#6{\oldnewlabel{#1}{{#2}{#3}}}
\AtEndDocument{\ifx\hyper@anchor\@undefined
\let\contentsline\oldcontentsline
\let\newlabel\oldnewlabel
\fi}
\fi}
\global\let\hyper@last\relax 
\gdef\HyperFirstAtBeginDocument#1{#1}
\providecommand\HyField@AuxAddToFields[1]{}
\providecommand\HyField@AuxAddToCoFields[2]{}
\select@language{french}
\@writefile{toc}{\select@language{french}}
\@writefile{lof}{\select@language{french}}
\@writefile{lot}{\select@language{french}}
\newlabel{sec:loria}{{1}{4}{Le Loria}{section.1}{}}
\@writefile{toc}{\contentsline {section}{\numberline {1}Le Loria}{4}{section.1}}
\citation{Egbert2014}
\newlabel{sec:Stage}{{2}{6}{Stage}{section.2}{}}
\@writefile{toc}{\contentsline {section}{\numberline {2}Stage}{6}{section.2}}
\citation{Egbert2014}
\bibstyle{unsrt}
\bibdata{sample.bib}
\bibcite{Egbert2014}{1}
\newlabel{sec:conclusion}{{3}{7}{Conclusion du stage}{section.3}{}}
\@writefile{toc}{\contentsline {section}{\numberline {3}Conclusion du stage}{7}{section.3}}
\@writefile{toc}{\contentsline {section}{\numberline {4}Introduction}{7}{section.4}}
\newlabel{eq:mu}{{3}{7}{Introduction}{equation.4.1}{}}
\newlabel{sec:method}{{5}{7}{Méthodes}{section.5}{}}
\@writefile{toc}{\contentsline {section}{\numberline {5} M\IeC {\'e}thodes}{7}{section.5}}
\@writefile{lof}{\contentsline {figure}{\numberline {1}{\ignorespaces  Illustration du suivi d'une trajectoire impos\IeC {\'e}e.}}{8}{figure.1}}
\newlabel{fig:img}{{1}{8}{Illustration du suivi d'une trajectoire imposée}{figure.1}{}}
